\begin{thebibliography}{1}

\bibitem{Behrndt:2013:Misc}
Johannes Behrndt.
\newblock Web dynpro abap anwendungen auf mobilen endgeräten.
\newblock
  \url{http://mission-mobile.de/2013/07/02/so-bekommen-sie-webdynpro-abap-anwendungen-auf-mobile-endgerate/},
  2013.

\bibitem{Biermann:2013:Misc}
Ingo Biermann.
\newblock Wann ist web dynpro java denn jetzt endlich tot?
\newblock
  \url{http://erlebe-software.de/2013/07/25/ist-web-dynpro-java-denn-jetzt-endlich-tot/},
  2013.

\bibitem{Franz:2010:Misc}
Thorsten Franz.
\newblock Kiss of death for web dynpro java – the follow-up questions.
\newblock
  \url{http://scn.sap.com/people/thorstenster/blog/2010/10/25/kiss-of-death-for-web-dynpro-java-the-follow-up-questions},
  2010.

\bibitem{FischerKrueger:2006:Misc}
Fischer~\& Krüger.
\newblock Vom sap dynpro zum web dynpro.
\newblock
  \url{http://www.computerwoche.de/a/vom-sap-dynpro-zum-web-dynpro,573501},
  2006.

\bibitem{Unbekannt:2009:Misc}
Unbekannt (E-3 Magazin).
\newblock Saps framework.
\newblock \url{http://www.e3cms.de/index.php?id=2817}, 2009.

\bibitem{SAP:Misc}
SAP.
\newblock Community-website web-dynpro.
\newblock \url{[scn.sap.com/community/web-dynpro-abap]}.

\bibitem{SAP:Unbekannt:Misc}
SAP.
\newblock Web dynpro abap.
\newblock
  \url{https://help.sap.com/saphelp_erp60_sp/helpdata/de/77/3545415ea6f523e10000000a155106/frameset.htm}.

\end{thebibliography}
