\contentsline {section}{\numberline {1}Einleitung}{3}{section.3}
\contentsline {subsection}{\numberline {1.1}Beschreibung der Thematik}{3}{subsection.4}
\contentsline {subsection}{\numberline {1.2}Zielsetzung der Arbeit}{3}{subsection.5}
\contentsline {subsection}{\numberline {1.3}Vorgehensweise und Gliederung}{3}{subsection.6}
\contentsline {section}{\numberline {2}Hauptteil}{4}{section.12}
\contentsline {subsection}{\numberline {2.1}Was sind Web Dynpros?}{4}{subsection.13}
\contentsline {subsection}{\numberline {2.2}Vor- und Nachteile von Web-Dynpros}{5}{subsection.15}
\contentsline {subsection}{\numberline {2.3}Einsatzbereiche}{5}{subsection.16}
\contentsline {section}{\numberline {3}Abschluss}{6}{section.17}
\contentsline {subsection}{\numberline {3.1}Zusammenfassung}{6}{subsection.18}
\contentsline {subsection}{\numberline {3.2}Fazit}{6}{subsection.19}
\contentsline {subsection}{\numberline {3.3}Ausblick}{6}{subsection.20}
