\relax 
\providecommand\hyper@newdestlabel[2]{}
\providecommand\HyperFirstAtBeginDocument{\AtBeginDocument}
\HyperFirstAtBeginDocument{\ifx\hyper@anchor\@undefined
\global\let\oldcontentsline\contentsline
\gdef\contentsline#1#2#3#4{\oldcontentsline{#1}{#2}{#3}}
\global\let\oldnewlabel\newlabel
\gdef\newlabel#1#2{\newlabelxx{#1}#2}
\gdef\newlabelxx#1#2#3#4#5#6{\oldnewlabel{#1}{{#2}{#3}}}
\AtEndDocument{\ifx\hyper@anchor\@undefined
\let\contentsline\oldcontentsline
\let\newlabel\oldnewlabel
\fi}
\fi}
\global\let\hyper@last\relax 
\gdef\HyperFirstAtBeginDocument#1{#1}
\providecommand\HyField@AuxAddToFields[1]{}
\providecommand\HyField@AuxAddToCoFields[2]{}
\bibstyle{plain}
\@writefile{toc}{\contentsline {section}{\numberline {1}Einleitung}{3}{section.3}}
\@writefile{toc}{\contentsline {subsection}{\numberline {1.1}Beschreibung der Thematik}{3}{subsection.4}}
\@writefile{toc}{\contentsline {subsection}{\numberline {1.2}Zielsetzung der Arbeit}{3}{subsection.5}}
\@writefile{toc}{\contentsline {subsection}{\numberline {1.3}Vorgehensweise und Gliederung}{3}{subsection.6}}
\citation{FischerKrueger:2006:Misc}
\citation{Biermann:2013:Misc}
\citation{Behrndt:2013:Misc}
\citation{Unbekannt:2009:Misc}
\citation{SAP:Unbekannt:Misc}
\citation{Unbekannt:2009:Misc}
\citation{Behrndt:2013:Misc}
\@writefile{toc}{\contentsline {section}{\numberline {2}Hauptteil}{4}{section.12}}
\@writefile{toc}{\contentsline {subsection}{\numberline {2.1}Was sind Web Dynpros?}{4}{subsection.13}}
\@writefile{lof}{\contentsline {figure}{\numberline {1}{\ignorespaces Ein typisches Web-Dynpro}}{4}{figure.14}}
\@writefile{toc}{\contentsline {subsection}{\numberline {2.2}Vor- und Nachteile von Web-Dynpros}{5}{subsection.15}}
\@writefile{toc}{\contentsline {subsection}{\numberline {2.3}Einsatzbereiche}{5}{subsection.16}}
\citation{Franz:2010:Misc}
\citation{SAP:Misc}
\@writefile{toc}{\contentsline {section}{\numberline {3}Abschluss}{6}{section.17}}
\@writefile{toc}{\contentsline {subsection}{\numberline {3.1}Zusammenfassung}{6}{subsection.18}}
\@writefile{toc}{\contentsline {subsection}{\numberline {3.2}Fazit}{6}{subsection.19}}
\@writefile{toc}{\contentsline {subsection}{\numberline {3.3}Ausblick}{6}{subsection.20}}
\bibdata{quellen.bib}
\bibcite{Behrndt:2013:Misc}{1}
\bibcite{Biermann:2013:Misc}{2}
\bibcite{Franz:2010:Misc}{3}
\bibcite{FischerKrueger:2006:Misc}{4}
\bibcite{Unbekannt:2009:Misc}{5}
\bibcite{SAP:Misc}{6}
\bibcite{SAP:Unbekannt:Misc}{7}
